…
fishing %>% 
  summarise(max_gt = max(grand_total,
                 na.rm = TRUE),
            min_gt = min(grand_total,
                 na.rm = TRUE))
#> # A tibble: 1 x 2
#>   max_gt min_gt
#>    <dbl>  <dbl>
#> 1  48821      0

fishing %>% 
  count(grand_total, sort = TRUE)
#> # A tibble: 2,380 x 2
#>    grand_total     n
#>          <dbl> <int>
#>  1          NA 31767
#>  2           0  3075
#>  3           1  1387
#>  4           2   884
#>  5           3   672
#>  6           4   440
#>  7           5   415
#>  8           9   307
#>  9          10   284
#> 10          11   274
#> # ... with 2,370 more rows


fishing %>% 
  count(grand_total)
#> # A tibble: 2,380 x 2
#>    grand_total     n
#>          <dbl> <int>
#>  1      0       3075
#>  2      0.0664     5
#>  3      0.0885     5
#>  4      0.0893     5
#>  5      0.194      5
#>  6      0.222      5
#>  7      0.3        5
#>  8      0.378      5
#>  9      0.420      5
#> 10      0.495      5
#> # ... with 2,370 more rows
…
